%YAML 1.1
%TAG !u! tag:unity3d.com,2011:
--- !u!1001 &991880034984337825
PrefabInstance:
  m_ObjectHideFlags: 0
  serializedVersion: 2
  m_Modification:
    m_TransformParent: {fileID: 0}
    m_Modifications:
    - target: {fileID: 8327162110893461070, guid: 9b99fa710f9bc29488cd89fe4c0bfe2f,
        type: 3}
      propertyPath: m_Name
      value: fw_module_3_wall_3
      objectReference: {fileID: 0}
    - target: {fileID: 2465795802942085820, guid: 9b99fa710f9bc29488cd89fe4c0bfe2f,
        type: 3}
      propertyPath: m_LocalPosition.x
      value: 0
      objectReference: {fileID: 0}
    - target: {fileID: 2465795802942085820, guid: 9b99fa710f9bc29488cd89fe4c0bfe2f,
        type: 3}
      propertyPath: m_LocalPosition.y
      value: 0
      objectReference: {fileID: 0}
    - target: {fileID: 2465795802942085820, guid: 9b99fa710f9bc29488cd89fe4c0bfe2f,
        type: 3}
      propertyPath: m_LocalPosition.z
      value: 0
      objectReference: {fileID: 0}
    - target: {fileID: 2465795802942085820, guid: 9b99fa710f9bc29488cd89fe4c0bfe2f,
        type: 3}
      propertyPath: m_LocalRotation.x
      value: 0
      objectReference: {fileID: 0}
    - target: {fileID: 2465795802942085820, guid: 9b99fa710f9bc29488cd89fe4c0bfe2f,
        type: 3}
      propertyPath: m_LocalRotation.y
      value: 0
      objectReference: {fileID: 0}
    - target: {fileID: 2465795802942085820, guid: 9b99fa710f9bc29488cd89fe4c0bfe2f,
        type: 3}
      propertyPath: m_LocalRotation.z
      value: 0
      objectReference: {fileID: 0}
    - target: {fileID: 2465795802942085820, guid: 9b99fa710f9bc29488cd89fe4c0bfe2f,
        type: 3}
      propertyPath: m_LocalRotation.w
      value: 1
      objectReference: {fileID: 0}
    - target: {fileID: 2465795802942085820, guid: 9b99fa710f9bc29488cd89fe4c0bfe2f,
        type: 3}
      propertyPath: m_RootOrder
      value: 0
      objectReference: {fileID: 0}
    - target: {fileID: 2465795802942085820, guid: 9b99fa710f9bc29488cd89fe4c0bfe2f,
        type: 3}
      propertyPath: m_LocalEulerAnglesHint.x
      value: 0
      objectReference: {fileID: 0}
    - target: {fileID: 2465795802942085820, guid: 9b99fa710f9bc29488cd89fe4c0bfe2f,
        type: 3}
      propertyPath: m_LocalEulerAnglesHint.y
      value: 0
      objectReference: {fileID: 0}
    - target: {fileID: 2465795802942085820, guid: 9b99fa710f9bc29488cd89fe4c0bfe2f,
        type: 3}
      propertyPath: m_LocalEulerAnglesHint.z
      value: 0
      objectReference: {fileID: 0}
    - target: {fileID: 7150766749667995926, guid: 9b99fa710f9bc29488cd89fe4c0bfe2f,
        type: 3}
      propertyPath: m_Materials.Array.data[0]
      value: 
      objectReference: {fileID: 2100000, guid: 732321d84b44b2245bf9f3a861be62b9, type: 2}
    m_RemovedComponents: []
  m_SourcePrefab: {fileID: 100100000, guid: 9b99fa710f9bc29488cd89fe4c0bfe2f, type: 3}
