%YAML 1.1
%TAG !u! tag:unity3d.com,2011:
--- !u!1001 &3800835914390773516
PrefabInstance:
  m_ObjectHideFlags: 0
  serializedVersion: 2
  m_Modification:
    m_TransformParent: {fileID: 0}
    m_Modifications:
    - target: {fileID: 9095921319949178993, guid: 8c2d2e4fe661bf041a70db5794f876db,
        type: 3}
      propertyPath: m_Name
      value: fw_module_8_stem_1
      objectReference: {fileID: 0}
    - target: {fileID: 3428213322428681347, guid: 8c2d2e4fe661bf041a70db5794f876db,
        type: 3}
      propertyPath: m_LocalPosition.x
      value: 0
      objectReference: {fileID: 0}
    - target: {fileID: 3428213322428681347, guid: 8c2d2e4fe661bf041a70db5794f876db,
        type: 3}
      propertyPath: m_LocalPosition.y
      value: 0
      objectReference: {fileID: 0}
    - target: {fileID: 3428213322428681347, guid: 8c2d2e4fe661bf041a70db5794f876db,
        type: 3}
      propertyPath: m_LocalPosition.z
      value: 0
      objectReference: {fileID: 0}
    - target: {fileID: 3428213322428681347, guid: 8c2d2e4fe661bf041a70db5794f876db,
        type: 3}
      propertyPath: m_LocalRotation.x
      value: 0
      objectReference: {fileID: 0}
    - target: {fileID: 3428213322428681347, guid: 8c2d2e4fe661bf041a70db5794f876db,
        type: 3}
      propertyPath: m_LocalRotation.y
      value: 0
      objectReference: {fileID: 0}
    - target: {fileID: 3428213322428681347, guid: 8c2d2e4fe661bf041a70db5794f876db,
        type: 3}
      propertyPath: m_LocalRotation.z
      value: 0
      objectReference: {fileID: 0}
    - target: {fileID: 3428213322428681347, guid: 8c2d2e4fe661bf041a70db5794f876db,
        type: 3}
      propertyPath: m_LocalRotation.w
      value: 1
      objectReference: {fileID: 0}
    - target: {fileID: 3428213322428681347, guid: 8c2d2e4fe661bf041a70db5794f876db,
        type: 3}
      propertyPath: m_RootOrder
      value: 0
      objectReference: {fileID: 0}
    - target: {fileID: 3428213322428681347, guid: 8c2d2e4fe661bf041a70db5794f876db,
        type: 3}
      propertyPath: m_LocalEulerAnglesHint.x
      value: 0
      objectReference: {fileID: 0}
    - target: {fileID: 3428213322428681347, guid: 8c2d2e4fe661bf041a70db5794f876db,
        type: 3}
      propertyPath: m_LocalEulerAnglesHint.y
      value: 0
      objectReference: {fileID: 0}
    - target: {fileID: 3428213322428681347, guid: 8c2d2e4fe661bf041a70db5794f876db,
        type: 3}
      propertyPath: m_LocalEulerAnglesHint.z
      value: 0
      objectReference: {fileID: 0}
    - target: {fileID: 7968998136590772009, guid: 8c2d2e4fe661bf041a70db5794f876db,
        type: 3}
      propertyPath: m_Materials.Array.data[0]
      value: 
      objectReference: {fileID: 2100000, guid: 56bdd90932ce28e4faf416ef019898e9, type: 2}
    m_RemovedComponents: []
  m_SourcePrefab: {fileID: 100100000, guid: 8c2d2e4fe661bf041a70db5794f876db, type: 3}
