%YAML 1.1
%TAG !u! tag:unity3d.com,2011:
--- !u!114 &-8731866216365999519
MonoBehaviour:
  m_ObjectHideFlags: 0
  m_CorrespondingSourceObject: {fileID: 0}
  m_PrefabInstance: {fileID: 0}
  m_PrefabAsset: {fileID: 0}
  m_GameObject: {fileID: 6097076621682827975}
  m_Enabled: 1
  m_EditorHideFlags: 0
  m_Script: {fileID: 11500000, guid: 6b762b4949a547e4a4bf936df682865f, type: 3}
  m_Name: 
  m_EditorClassIdentifier: 
  Delay: 0
  Prefab: {fileID: 5461397599696658517, guid: 915d8eca42a9ba44c89532ecad7940f1, type: 3}
  EventType: 0
  Event: fire
  SpawnAt: 0
  Offset: {x: 0, y: 0, z: 0}
--- !u!1001 &109490353823739372
PrefabInstance:
  m_ObjectHideFlags: 0
  serializedVersion: 2
  m_Modification:
    m_TransformParent: {fileID: 0}
    m_Modifications:
    - target: {fileID: 6132167696252440363, guid: ce1708d92ac176640a3a24e8f1aafb05,
        type: 3}
      propertyPath: m_Name
      value: fw_module_4_sunflower_1
      objectReference: {fileID: 0}
    - target: {fileID: 338218445217078233, guid: ce1708d92ac176640a3a24e8f1aafb05,
        type: 3}
      propertyPath: m_LocalPosition.x
      value: 0
      objectReference: {fileID: 0}
    - target: {fileID: 338218445217078233, guid: ce1708d92ac176640a3a24e8f1aafb05,
        type: 3}
      propertyPath: m_LocalPosition.y
      value: 0
      objectReference: {fileID: 0}
    - target: {fileID: 338218445217078233, guid: ce1708d92ac176640a3a24e8f1aafb05,
        type: 3}
      propertyPath: m_LocalPosition.z
      value: 0
      objectReference: {fileID: 0}
    - target: {fileID: 338218445217078233, guid: ce1708d92ac176640a3a24e8f1aafb05,
        type: 3}
      propertyPath: m_LocalRotation.x
      value: 0
      objectReference: {fileID: 0}
    - target: {fileID: 338218445217078233, guid: ce1708d92ac176640a3a24e8f1aafb05,
        type: 3}
      propertyPath: m_LocalRotation.y
      value: 0
      objectReference: {fileID: 0}
    - target: {fileID: 338218445217078233, guid: ce1708d92ac176640a3a24e8f1aafb05,
        type: 3}
      propertyPath: m_LocalRotation.z
      value: 0
      objectReference: {fileID: 0}
    - target: {fileID: 338218445217078233, guid: ce1708d92ac176640a3a24e8f1aafb05,
        type: 3}
      propertyPath: m_LocalRotation.w
      value: 1
      objectReference: {fileID: 0}
    - target: {fileID: 338218445217078233, guid: ce1708d92ac176640a3a24e8f1aafb05,
        type: 3}
      propertyPath: m_RootOrder
      value: 0
      objectReference: {fileID: 0}
    - target: {fileID: 338218445217078233, guid: ce1708d92ac176640a3a24e8f1aafb05,
        type: 3}
      propertyPath: m_LocalEulerAnglesHint.x
      value: 0
      objectReference: {fileID: 0}
    - target: {fileID: 338218445217078233, guid: ce1708d92ac176640a3a24e8f1aafb05,
        type: 3}
      propertyPath: m_LocalEulerAnglesHint.y
      value: 0
      objectReference: {fileID: 0}
    - target: {fileID: 338218445217078233, guid: ce1708d92ac176640a3a24e8f1aafb05,
        type: 3}
      propertyPath: m_LocalEulerAnglesHint.z
      value: 0
      objectReference: {fileID: 0}
    - target: {fileID: 5023048147627651187, guid: ce1708d92ac176640a3a24e8f1aafb05,
        type: 3}
      propertyPath: m_Materials.Array.data[0]
      value: 
      objectReference: {fileID: 2100000, guid: 09bb01cb51cc9b249810a24b167db10f, type: 2}
    m_RemovedComponents:
    - {fileID: 8982038348810569287, guid: ce1708d92ac176640a3a24e8f1aafb05, type: 3}
  m_SourcePrefab: {fileID: 100100000, guid: ce1708d92ac176640a3a24e8f1aafb05, type: 3}
--- !u!1 &6097076621682827975 stripped
GameObject:
  m_CorrespondingSourceObject: {fileID: 6132167696252440363, guid: ce1708d92ac176640a3a24e8f1aafb05,
    type: 3}
  m_PrefabInstance: {fileID: 109490353823739372}
  m_PrefabAsset: {fileID: 0}
